recess, haircut, police, scene, owl, flowers, pot, end, advertisement, bells, mountain, drop, muscle, beginner, trucks, advice
1, 51.885437, 19068, 54309796, fffffffffffffffa, 0, a, 1, 0, 0, 3, 71, leaf, 1997, -581.390259, -0.000847
1, -1988.158691, -27478, 4193533265, fffffffffffffffd, 0, #, 1, 0, 0, 79, 0, snails, 7, 928.909790, 2982.027832
1, 1.000000, 498, 7300, fffffffffffffffc, 1, =, 1, 1, 0, 1, 80706, crate, 29786, 1.000000, -3769.458496
0, -1288.609253, 18629, 0, 0, 1, m, 1, 1, 0, 0, 1, time, 16073, -960.530884, -3438.925781
1, -1966.550537, -27478, 4193533265, fffffffffffffffd, 0, k, 0, 1, 1, 79, 6, cup, 7, 0.005615, 0.000000
0, 1522.725220, 186, 3669062454, 1, 0, ;, 1, 0, 1, 8, 11, road, 0, -801.826782, -0.139153
0, -0.000002, -445, 1, 7, 0, 5, 0, 1, 0, 243, 1769580267, hen, 32755, 7.556396, 3061.699219
1, 0.000000, -28665, 72907, 6, 0, ., 0, 0, 1, 136, 622700, beast, 61, 0.000000, 1.000000
1, 172.293182, 1, 11518527, fffffffffffffffa, 0, 0, 0, 1, 0, 118, 2, camera, 1, -4.575195, -4006.003418
0, 1102.610474, 0, 1654530612, 3, 0, w, 1, 0, 1, 3, 1837039852, room, 11, 568.321289, -0.007797
